"{\n  \"href\" : \"https://api.spotify.com/v1/shows/6n6C91NUujclSeBAX6e9uA/episodes?offset=0&limit=1\",\n  \"items\" : [ {\n    \"audio_preview_url\" : \"https://p.scdn.co/mp3-preview/ff4c6389dbb418391fbe84ff56930b963c58b696\",\n    \"description\" : \"You heard that right: 1 whole year of Love, Liz & Court! We've covered everything from personality types to conspiracy theories, to the never-ending Kim & Kanye drama. So it's fitting that this week we take a look back on the year & answer some questions from our audience. Oh, & we let out some major news.....WE HAVE A NEW PODCAST COMING OUT! But you'll have to listen along to get the full tea. We hope you love it! Love, Liz & Court\",\n    \"duration_ms\" : 3649854,\n    \"explicit\" : false,\n    \"external_urls\" : {\n      \"spotify\" : \"https://open.spotify.com/episode/5ODQ3UVIqpxlnhJ8LxodSN\"\n    },\n    \"href\" : \"https://api.spotify.com/v1/episodes/5ODQ3UVIqpxlnhJ8LxodSN\",\n    \"html_description\" : \"You heard that right: 1 whole year of Love, Liz &amp; Court! We&#39;ve covered everything from personality types to conspiracy theories, to the never-ending Kim &amp; Kanye drama. So it&#39;s fitting that this week we take a look back on the year &amp; answer some questions from our audience. Oh, &amp; we let out some major news.....WE HAVE A NEW PODCAST COMING OUT! But you&#39;ll have to listen along to get the full tea. We hope you love it! Love, Liz &amp; Court\",\n    \"id\" : \"5ODQ3UVIqpxlnhJ8LxodSN\",\n    \"images\" : [ {\n      \"height\" : 640,\n      \"url\" : \"https://i.scdn.co/image/ab6765630000ba8a7a26bdaa44ed8cad4cbac373\",\n      \"width\" : 640\n    }, {\n      \"height\" : 300,\n      \"url\" : \"https://i.scdn.co/image/ab67656300005f1f7a26bdaa44ed8cad4cbac373\",\n      \"width\" : 300\n    }, {\n      \"height\" : 64,\n      \"url\" : \"https://i.scdn.co/image/ab6765630000f68d7a26bdaa44ed8cad4cbac373\",\n      \"width\" : 64\n    } ],\n    \"is_externally_hosted\" : false,\n    \"is_playable\" : true,\n    \"language\" : \"en\",\n    \"languages\" : [ \"en\" ],\n    \"name\" : \"52 - A Year in the Making\",\n    \"release_date\" : \"2023-01-31\",\n    \"release_date_precision\" : \"day\",\n    \"type\" : \"episode\",\n    \"uri\" : \"spotify:episode:5ODQ3UVIqpxlnhJ8LxodSN\"\n  } ],\n  \"limit\" : 1,\n  \"next\" : \"https://api.spotify.com/v1/shows/6n6C91NUujclSeBAX6e9uA/episodes?offset=1&limit=1\",\n  \"offset\" : 0,\n  \"previous\" : null,\n  \"total\" : 53\n}"